{

        "/apipdf": {
        "target": "http://pdf.antara-insight.id",
        "secure": false,
        "logLevel": "debug",
        "pathRewrite": {
            "^/apipdf": ""
        },
        "changeOrigin": true
    }
}
